rank words frequency
1 i 529
2 the 479
3 you 437
4 and 370
5 to 360
6 a 322
7 my 263
8 me 250
9 in 193
10 it 167
11 that 158
12 love 153
13 of 144
14 on 135
15 so 117
16 be 110
17 your 108
18 all 107
19 just 105
20 got 97
21 for 95
22 do 93
23 i'm 87
24 now 83
25 it's 83
26 but 82
27 when 77
28 know 77
29 don't 76
30 she 74
31 if 74
32 can 72
33 can't 71
34 with 69
35 like 69
36 you're 67
37 heart 67
38 get 66
39 cry 66
40 little 64
41 is 64
42 from 64
43 down 63
44 we 61
45 want 61
46 one 61
47 come 59
48 he 56
49 say 53
50 no 52
