rank words frequency
1 the 598
2 i 498
3 you 488
4 to 328
5 a 307
6 and 297
7 me 262
8 love 249
9 my 199
10 in 154
11 of 144
12 that 140
13 for 117
14 it 114
15 on 111
16 be 111
17 your 103
18 what 100
19 know 99
20 so 98
21 i'm 98
22 but 90
23 is 89
24 don't 81
25 we 80
26 that's 74
27 all 73
28 little 71
29 when 69
30 way 67
31 oh, 64
32 as 64
33 oh 63
34 just 63
35 she 62
36 now 61
37 i'll 61
38 go 60
39 got 58
40 come 58
41 was 56
42 with 54
43 he 54
44 good 54
45 by 52
46 one 49
47 can 49
48 tell 47
49 oop, 47
50 heart 47
