words frequency
1 the 847
2 you 715
3 i 659
4 and 595
5 to 498
6 a 471
7 me 432
8 on 354
9 my 302
10 in 274
11 of 267
12 love 262
13 that 216
14 it 216
15 your 203
16 i'm 191
17 get 178
18 for 161
19 all 147
20 don't 140
21 be 133
22 come 132
23 with 127
24 baby 123
25 just 122
26 if 112
27 let 106
28 but 106
29 like 105
30 we 104
31 oh 101
32 is 101
33 know 100
34 got 99
35 so 95
36 do 95
37 you're 92
38 when 92
39 can 92
40 she 91
41 down 90
42 her 89
43 have 81
44 rock 80
45 gonna 79
46 was 76
47 what 75
48 there 72
49 never 72
50 no 70
