words frequency
1 i 1431
2 you 1367
3 the 1213
4 and 827
5 to 801
6 a 700
7 me 506
8 my 442
9 in 382
10 that 369
11 love 360
12 your 315
13 i'm 312
14 it 308
15 of 304
16 be 304
17 don't 303
18 for 298
19 on 262
20 what 254
21 with 252
22 do 246
23 know 241
24 is 238
25 just 226
26 so 219
27 all 200
28 but 199
29 we 197
30 it's 180
31 when 176
32 can 171
33 if 163
34 like 155
35 let 153
36 come 145
37 want 140
38 got 140
39 never 134
40 wanna 132
41 will 127
42 one 127
43 this 124
44 see 122
45 make 122
46 baby, 118
47 oh 116
48 down 115
49 up 113
50 i'll 111
