words frequency
1 you 1348
2 i 1140
3 the 1136
4 to 781
5 and 660
6 it 581
7 a 550
8 me 536
9 my 444
10 love 435
11 on 359
12 in 346
13 of 320
14 your 309
15 that 304
16 be 269
17 all 264
18 it's 259
19 we 254
20 for 246
21 know 238
22 just 235
23 don't 230
24 i'm 225
25 so 216
26 is 214
27 but 205
28 can 199
29 do 188
30 baby 180
31 make 175
32 can't 161
33 with 157
34 get 155
35 you're 152
36 this 150
37 if 143
38 got 141
39 i'll 139
40 like 138
41 go 136
42 when 135
43 up 132
44 have 129
45 come 122
46 was 119
47 want 118
48 time 118
49 no 118
50 wanna 115
